{
  "project_info": {
    "project_number": "957242956523",
    "firebase_url": "https://schedule-e4ee2.firebaseio.com",
    "project_id": "schedule-e4ee2",
    "storage_bucket": "schedule-e4ee2.appspot.com"
  },
  "client": [
    {
      "client_info": {
        "mobilesdk_app_id": "1:957242956523:android:ff0915e6b62e9e7fd03cae",
        "android_client_info": {
          "package_name": "com.mstr.scheduleapp"
        }
      },
      "oauth_client": [
        {
          "client_id": "957242956523-526bliadfs57imn1lv57c267harpbn1m.apps.googleusercontent.com",
          "client_type": 1,
          "android_info": {
            "package_name": "com.mstr.scheduleapp",
            "certificate_hash": "4f83bdbf9472d3a4c1e5ba970f99adecf201fa94"
          }
        },
        {
          "client_id": "957242956523-fffi1oot77de036st0kkt41o59f9djci.apps.googleusercontent.com",
          "client_type": 3
        }
      ],
      "api_key": [
        {
          "current_key": "AIzaSyANMyWefqAGztrBA64tUW-rx5sVac3opZM"
        }
      ],
      "services": {
        "appinvite_service": {
          "other_platform_oauth_client": [
            {
              "client_id": "957242956523-fffi1oot77de036st0kkt41o59f9djci.apps.googleusercontent.com",
              "client_type": 3
            }
          ]
        }
      }
    }
  ],
  "configuration_version": "1"
}